<?xml version="1.0" standalone="no"?>
<!DOCTYPE svg PUBLIC "-//W3C//DTD SVG 20010904//EN"
 "http://www.w3.org/TR/2001/REC-SVG-20010904/DTD/svg10.dtd">
<svg version="1.0" xmlns="http://www.w3.org/2000/svg"
 width="301.000000pt" height="300.000000pt" viewBox="0 0 301.000000 300.000000"
 preserveAspectRatio="xMidYMid meet">

<g transform="translate(0.000000,300.000000) scale(0.100000,-0.100000)"
fill="#000000" stroke="none">
<path d="M1062 1825 c-30 -61 -32 -72 -32 -170 0 -58 -2 -105 -3 -105 -2 0
-18 7 -36 16 -49 25 -102 28 -163 10 -191 -55 -216 -335 -38 -429 47 -24 64
-28 115 -25 33 2 74 11 92 20 31 15 32 15 38 -9 5 -22 9 -24 63 -21 l57 3 3
321 2 321 -31 67 c-17 36 -32 66 -33 66 -1 0 -16 -29 -34 -65z m25 -52 c-3 -2
-13 -3 -23 -1 -16 3 -16 4 2 22 18 18 19 18 22 2 2 -10 1 -20 -1 -23z m43 17
c9 -16 8 -20 -5 -20 -8 0 -15 9 -15 20 0 11 2 20 5 20 2 0 9 -9 15 -20z m-40
-280 c0 -243 -1 -250 -20 -250 -19 0 -20 7 -20 250 0 243 1 250 20 250 19 0
20 -7 20 -250z m50 0 c0 -216 -2 -250 -15 -250 -13 0 -15 34 -15 250 0 216 2
250 15 250 13 0 15 -34 15 -250z m-160 -35 c41 -21 50 -43 50 -123 0 -82 -20
-115 -78 -131 -91 -26 -172 38 -172 135 0 104 107 167 200 119z"/>
<path d="M1748 1803 c83 -2 221 -2 305 0 83 1 15 3 -153 3 -168 0 -236 -2
-152 -3z"/>
<path d="M1600 1783 c0 -5 135 -8 300 -8 165 0 300 3 300 8 0 4 -135 7 -300 7
-165 0 -300 -3 -300 -7z"/>
<path d="M1748 1753 c83 -2 221 -2 305 0 83 1 15 3 -153 3 -168 0 -236 -2
-152 -3z"/>
<path d="M1600 1728 c0 -5 135 -8 300 -8 165 0 300 3 300 8 0 4 -135 7 -300 7
-165 0 -300 -3 -300 -7z"/>
<path d="M1712 1703 l118 -4 3 -292 2 -292 3 293 c1 183 6 292 12 292 6 0 11
-109 13 -292 l2 -293 3 293 c1 186 6 292 12 292 6 0 10 -103 10 -290 0 -187 4
-290 10 -290 6 0 10 103 10 290 0 192 3 290 10 290 7 0 10 -96 10 -286 -1
-157 1 -289 4 -292 3 -3 6 126 6 286 0 185 4 292 10 292 6 0 11 -109 13 -292
l2 -293 3 293 2 293 115 -3 c63 -2 115 0 115 5 0 4 -136 6 -302 5 -167 -1
-250 -4 -186 -5z"/>
<path d="M2331 1580 c-18 -4 -46 -18 -62 -29 l-29 -22 0 26 c0 24 -3 25 -55
25 l-55 0 2 -227 3 -228 52 -3 51 -3 4 138 c4 151 15 189 63 211 14 7 41 12
60 12 l35 0 0 55 c0 60 -1 61 -69 45z"/>
<path d="M2502 1575 c-62 -17 -92 -32 -92 -45 0 -5 7 -25 17 -44 l16 -35 38
20 c56 28 150 26 182 -3 14 -13 28 -35 31 -50 l6 -28 -97 0 c-122 0 -176 -21
-198 -74 -32 -77 -5 -144 72 -178 60 -26 149 -22 192 10 l30 22 3 -23 c3 -19
9 -22 53 -22 l50 0 0 165 c0 148 -2 169 -21 205 -40 78 -164 113 -282 80z
m198 -280 c0 -14 -13 -39 -29 -57 -26 -30 -35 -33 -84 -33 -63 0 -87 16 -87
56 0 44 31 59 122 59 76 0 78 -1 78 -25z"/>
<path d="M1222 1418 c4 -142 7 -168 26 -204 49 -95 190 -124 286 -59 l36 24 0
-29 c0 -29 1 -30 50 -30 l50 0 0 230 0 230 -55 0 -55 0 0 -135 c0 -184 -22
-225 -123 -225 -38 0 -53 5 -72 25 -24 24 -25 28 -25 180 l0 155 -61 0 -61 0
4 -162z"/>
<path d="M2417 992 c-38 -42 -11 -122 41 -122 25 0 55 27 46 42 -4 7 -10 4
-16 -6 -20 -35 -68 -11 -68 34 0 14 5 31 12 38 17 17 47 15 54 -3 7 -16 24
-21 24 -6 0 18 -31 41 -54 41 -13 0 -30 -8 -39 -18z"/>
<path d="M2530 940 c0 -40 4 -70 10 -70 6 0 10 11 10 25 0 18 5 25 20 25 12 0
25 -10 32 -25 6 -14 17 -25 25 -25 11 0 10 5 -3 26 -13 19 -14 28 -5 37 14 14
14 50 -1 65 -7 7 -29 12 -50 12 l-38 0 0 -70z m75 25 c0 -14 -8 -21 -27 -23
-24 -3 -28 0 -28 23 0 23 4 26 28 23 19 -2 27 -9 27 -23z"/>
<path d="M2660 940 c0 -40 4 -70 10 -70 6 0 10 21 11 48 l1 47 20 -47 c11 -27
24 -48 28 -48 4 0 17 21 28 48 l20 47 1 -47 c1 -27 6 -48 11 -48 6 0 10 30 10
70 0 86 -18 94 -44 20 -10 -27 -22 -50 -26 -50 -4 0 -16 23 -26 50 -26 74 -44
66 -44 -20z"/>
</g>
</svg>
